<svg width="8" height="11" viewBox="0 0 8 11" fill="none" xmlns="http://www.w3.org/2000/svg">
<path d="M6.96771 5.10737L1.12168 0.162365C0.865155 -0.0541428 0.44955 -0.0541429 0.192382 0.162365C-0.0641388 0.378872 -0.0641389 0.730537 0.192381 0.947045L5.57472 5.49969L0.193027 10.0523C-0.0634936 10.2688 -0.0634937 10.6205 0.193027 10.8376C0.449547 11.0541 0.865799 11.0541 1.12232 10.8376L6.96836 5.8926C7.22094 5.67833 7.22094 5.32114 6.96771 5.10737Z" fill="white"/>
</svg>
